{"properties": [
  {
    "name": "selfcare.DefaultColor",
    "type": "java.lang.String",
    "description": "A description for 'selfcare.DefaultColor'"
  },
  {
    "name": "selfcare.Color",
    "type": "java.lang.String",
    "description": "A description for 'selfcare.Color'"
  },
  {
    "name": "selfcare.Color",
    "type": "java.lang.String",
    "description": "A description for 'selfcare.Color'"
  }
]}